<?xml version="1.0" encoding="UTF-8" standalone="no"?>
<!-- Created with Inkscape (http://www.inkscape.org/) -->

<svg
   xmlns:dc="http://purl.org/dc/elements/1.1/"
   xmlns:cc="http://creativecommons.org/ns#"
   xmlns:rdf="http://www.w3.org/1999/02/22-rdf-syntax-ns#"
   xmlns:svg="http://www.w3.org/2000/svg"
   xmlns="http://www.w3.org/2000/svg"
   xmlns:sodipodi="http://sodipodi.sourceforge.net/DTD/sodipodi-0.dtd"
   xmlns:inkscape="http://www.inkscape.org/namespaces/inkscape"
   width="216.5843mm"
   height="42.809586mm"
   viewBox="0 0 216.5843 42.809586"
   version="1.1"
   id="svg8"
   inkscape:version="0.92.4 (5da689c313, 2019-01-14)"
   sodipodi:docname="Coro-logo - small.svg">
  <defs
     id="defs2" />
  <sodipodi:namedview
     id="base"
     pagecolor="#ffffff"
     bordercolor="#666666"
     borderopacity="1.0"
     inkscape:pageopacity="0.0"
     inkscape:pageshadow="2"
     inkscape:zoom="0.7"
     inkscape:cx="232.18808"
     inkscape:cy="145.21402"
     inkscape:document-units="mm"
     inkscape:current-layer="layer1"
     showgrid="false"
     inkscape:window-width="1920"
     inkscape:window-height="1177"
     inkscape:window-x="-8"
     inkscape:window-y="-8"
     inkscape:window-maximized="1" />
  <metadata
     id="metadata5">
    <rdf:RDF>
      <cc:Work
         rdf:about="">
        <dc:format>image/svg+xml</dc:format>
        <dc:type
           rdf:resource="http://purl.org/dc/dcmitype/StillImage" />
        <dc:title />
      </cc:Work>
    </rdf:RDF>
  </metadata>
  <g
     inkscape:label="Ebene 1"
     inkscape:groupmode="layer"
     id="layer1"
     transform="translate(-119.61877,-170.5952)">
    <g
       aria-label="construction &amp;
robotics
M.Sc. programme"
       style="font-style:normal;font-variant:normal;font-weight:bold;font-stretch:normal;font-size:10.99994469px;line-height:1.25;font-family:'Neue Haas Grotesk Text Pro';-inkscape-font-specification:'Neue Haas Grotesk Text Pro Bold';letter-spacing:0px;word-spacing:0px;fill:#000000;fill-opacity:1;stroke:none;stroke-width:0.27499861"
       id="text846">
      <path
         d="m 123.31475,182.19684 q -0.8448,0 -1.5312,-0.2772 -0.67319,-0.2904 -1.16159,-0.79199 -0.4752,-0.5016 -0.7392,-1.1748 -0.26399,-0.68639 -0.26399,-1.47839 0,-0.792 0.25079,-1.46519 0.264,-0.6864 0.7392,-1.188 0.4752,-0.50159 1.14839,-0.77879 0.6732,-0.2904 1.5048,-0.2904 0.69959,0 1.26719,0.198 0.5676,0.1848 0.9768,0.528 0.42239,0.34319 0.68639,0.83159 0.264,0.4752 0.3564,1.0428 h -2.00639 q -0.1056,-0.4884 -0.4224,-0.7656 -0.3168,-0.2904 -0.83159,-0.2904 -0.792,0 -1.188,0.594 -0.3828,0.594 -0.3828,1.58399 0,0.9636 0.3828,1.55759 0.396,0.594 1.188,0.594 0.58079,0 0.91079,-0.33 0.3432,-0.33 0.4092,-0.93719 h 1.99319 q -0.0264,0.59399 -0.2772,1.12199 -0.2376,0.5148 -0.66,0.8976 -0.42239,0.38279 -1.02959,0.59399 -0.594,0.2244 -1.31999,0.2244 z"
         style="font-size:13.19993305px;line-height:1;fill:#9c9e9f;fill-opacity:1;stroke-width:0.27499861"
         id="path826"
         inkscape:connector-curvature="0" />
      <path
         d="m 130.94658,182.19684 q -0.8448,0 -1.5312,-0.2772 -0.68639,-0.2904 -1.17479,-0.79199 -0.4884,-0.5016 -0.7524,-1.1748 -0.26399,-0.68639 -0.26399,-1.47839 0,-0.792 0.26399,-1.46519 0.264,-0.6864 0.7524,-1.188 0.4884,-0.50159 1.17479,-0.77879 0.6864,-0.2904 1.5312,-0.2904 0.83159,0 1.51799,0.2904 0.6864,0.2772 1.16159,0.77879 0.4884,0.5016 0.7524,1.188 0.264,0.67319 0.264,1.46519 0,0.792 -0.264,1.47839 -0.264,0.6732 -0.7524,1.1748 -0.47519,0.50159 -1.16159,0.79199 -0.6864,0.2772 -1.51799,0.2772 z m -0.0132,-1.50479 q 0.77879,0 1.18799,-0.6072 0.4224,-0.62039 0.4224,-1.61039 0,-1.00319 -0.4224,-1.62359 -0.4092,-0.6204 -1.18799,-0.6204 -0.792,0 -1.2012,0.6204 -0.4092,0.6204 -0.4092,1.62359 0,0.99 0.4092,1.61039 0.4092,0.6072 1.2012,0.6072 z"
         style="font-style:normal;font-variant:normal;font-weight:bold;font-stretch:normal;font-size:13.19993305px;line-height:1;font-family:'Neue Haas Grotesk Text Pro';-inkscape-font-specification:'Neue Haas Grotesk Text Pro Bold';stroke-width:0.27499861"
         id="path828"
         inkscape:connector-curvature="0" />
      <path
         d="m 137.68164,176.01927 h 0.0396 q 0.32999,-0.63359 0.87119,-0.95039 0.5544,-0.3168 1.29359,-0.3168 1.1616,0 1.7952,0.7128 0.64679,0.69959 0.64679,1.88759 v 4.61997 h -2.05919 v -4.22398 q 0,-0.58079 -0.3036,-0.92399 -0.29039,-0.3564 -0.87119,-0.3564 -0.6072,0 -0.9768,0.4356 -0.36959,0.4356 -0.36959,1.10879 v 3.95998 h -2.07239 v -7.02236 h 2.00639 z"
         style="font-style:normal;font-variant:normal;font-weight:bold;font-stretch:normal;font-size:13.19993305px;line-height:1;font-family:'Neue Haas Grotesk Text Pro';-inkscape-font-specification:'Neue Haas Grotesk Text Pro Bold';stroke-width:0.27499861"
         id="path830"
         inkscape:connector-curvature="0" />
      <path
         d="m 146.5588,182.19684 q -0.7656,0 -1.3728,-0.1716 -0.60719,-0.1716 -1.04279,-0.4884 -0.4224,-0.31679 -0.6732,-0.75239 -0.2376,-0.4488 -0.2772,-0.9768 h 1.95359 q 0.0924,0.5016 0.4488,0.7656 0.3696,0.264 0.9768,0.264 0.55439,0 0.85799,-0.2112 0.3036,-0.2112 0.3036,-0.594 0,-0.2376 -0.1452,-0.3828 -0.1452,-0.14519 -0.396,-0.23759 -0.25079,-0.0924 -0.58079,-0.1452 -0.3168,-0.066 -0.6864,-0.132 -0.4752,-0.0924 -0.92399,-0.2112 -0.4488,-0.1188 -0.8052,-0.3564 -0.3564,-0.2376 -0.5808,-0.6204 -0.2112,-0.3828 -0.2112,-1.00319 0,-0.5412 0.2244,-0.9504 0.2376,-0.40919 0.6336,-0.68639 0.396,-0.2772 0.93719,-0.4092 0.5412,-0.1452 1.1616,-0.1452 1.46519,0 2.21759,0.5808 0.75239,0.56759 0.89759,1.49159 h -1.92719 q -0.198,-0.7524 -1.18799,-0.7524 -0.4752,0 -0.7656,0.1848 -0.2772,0.1848 -0.2772,0.528 0,0.198 0.132,0.33 0.132,0.1188 0.3696,0.198 0.2376,0.0792 0.5544,0.132 0.3168,0.0528 0.67319,0.11879 0.4752,0.0792 0.9504,0.2112 0.4752,0.1188 0.858,0.3696 0.38279,0.2508 0.62039,0.6732 0.2508,0.4092 0.2508,1.06919 0,0.5676 -0.2376,1.0032 -0.2376,0.4356 -0.65999,0.72599 -0.4224,0.2904 -1.0032,0.4356 -0.5808,0.1452 -1.26719,0.1452 z"
         style="font-style:normal;font-variant:normal;font-weight:bold;font-stretch:normal;font-size:13.19993305px;line-height:1;font-family:'Neue Haas Grotesk Text Pro';-inkscape-font-specification:'Neue Haas Grotesk Text Pro Bold';stroke-width:0.27499861"
         id="path832"
         inkscape:connector-curvature="0" />
      <path
         d="m 150.14175,174.95008 h 1.056 v -2.24399 h 2.03279 v 2.24399 h 1.37279 v 1.31999 h -1.37279 v 3.48478 q 0,0.396 0.198,0.5412 0.2112,0.132 0.58079,0.132 0.1056,0 0.2376,0 0.132,-0.0132 0.2376,-0.0264 h 0.1056 v 1.54439 q -0.1716,0.0264 -0.4752,0.066 -0.30359,0.0396 -0.72599,0.0396 -0.4884,0 -0.8976,-0.0792 -0.396,-0.0924 -0.68639,-0.3036 -0.2904,-0.22439 -0.4488,-0.56759 -0.1584,-0.3564 -0.1584,-0.8976 v -3.93358 h -1.056 z"
         style="font-style:normal;font-variant:normal;font-weight:bold;font-stretch:normal;font-size:13.19993305px;line-height:1;font-family:'Neue Haas Grotesk Text Pro';-inkscape-font-specification:'Neue Haas Grotesk Text Pro Bold';stroke-width:0.27499861"
         id="path834"
         inkscape:connector-curvature="0" />
      <path
         d="m 157.67459,176.20407 h 0.0396 q 0.34319,-0.73919 0.81839,-1.05599 0.4752,-0.3168 1.1352,-0.3168 0.31679,0 0.43559,0.0528 v 1.80839 h -0.0528 q -0.2244,-0.0396 -0.43559,-0.0396 -0.8448,-0.0132 -1.3596,0.5148 -0.5016,0.51479 -0.5016,1.54439 v 3.26038 h -2.07238 v -7.02236 h 1.99319 z"
         style="font-style:normal;font-variant:normal;font-weight:bold;font-stretch:normal;font-size:13.19993305px;line-height:1;font-family:'Neue Haas Grotesk Text Pro';-inkscape-font-specification:'Neue Haas Grotesk Text Pro Bold';stroke-width:0.27499861"
         id="path836"
         inkscape:connector-curvature="0" />
      <path
         d="m 165.66261,181.97244 v -1.00319 h -0.0396 q -0.3828,0.62039 -0.8844,0.91079 -0.50159,0.2904 -1.22759,0.2904 -1.20119,0 -1.83479,-0.69959 -0.6336,-0.7128 -0.6336,-1.8744 v -4.64637 h 2.07239 v 4.25038 q 0,0.59399 0.2772,0.91079 0.2904,0.3168 0.8448,0.3168 0.63359,0 0.98999,-0.4224 0.3564,-0.4224 0.3564,-1.08239 v -3.97318 h 2.04599 v 7.02236 z"
         style="font-style:normal;font-variant:normal;font-weight:bold;font-stretch:normal;font-size:13.19993305px;line-height:1;font-family:'Neue Haas Grotesk Text Pro';-inkscape-font-specification:'Neue Haas Grotesk Text Pro Bold';stroke-width:0.27499861"
         id="path838"
         inkscape:connector-curvature="0" />
      <path
         d="m 172.37622,182.19684 q -0.8448,0 -1.5312,-0.2772 -0.67319,-0.2904 -1.16159,-0.79199 -0.4752,-0.5016 -0.7392,-1.1748 -0.26399,-0.68639 -0.26399,-1.47839 0,-0.792 0.25079,-1.46519 0.264,-0.6864 0.7392,-1.188 0.4752,-0.50159 1.14839,-0.77879 0.6732,-0.2904 1.5048,-0.2904 0.69959,0 1.26719,0.198 0.5676,0.1848 0.9768,0.528 0.42239,0.34319 0.68639,0.83159 0.264,0.4752 0.3564,1.0428 h -2.00639 q -0.1056,-0.4884 -0.4224,-0.7656 -0.3168,-0.2904 -0.83159,-0.2904 -0.792,0 -1.188,0.594 -0.3828,0.594 -0.3828,1.58399 0,0.9636 0.3828,1.55759 0.396,0.594 1.188,0.594 0.58079,0 0.91079,-0.33 0.3432,-0.33 0.4092,-0.93719 h 1.99319 q -0.0264,0.59399 -0.2772,1.12199 -0.2376,0.5148 -0.66,0.8976 -0.42239,0.38279 -1.02959,0.59399 -0.594,0.2244 -1.31999,0.2244 z"
         style="font-style:normal;font-variant:normal;font-weight:bold;font-stretch:normal;font-size:13.19993305px;line-height:1;font-family:'Neue Haas Grotesk Text Pro';-inkscape-font-specification:'Neue Haas Grotesk Text Pro Bold';stroke-width:0.27499861"
         id="path840"
         inkscape:connector-curvature="0" />
      <path
         d="m 176.20647,174.95008 h 1.05599 v -2.24399 h 2.03279 v 2.24399 h 1.37279 v 1.31999 h -1.37279 v 3.48478 q 0,0.396 0.198,0.5412 0.2112,0.132 0.5808,0.132 0.1056,0 0.2376,0 0.13199,-0.0132 0.23759,-0.0264 h 0.1056 v 1.54439 q -0.1716,0.0264 -0.47519,0.066 -0.3036,0.0396 -0.726,0.0396 -0.4884,0 -0.8976,-0.0792 -0.39599,-0.0924 -0.68639,-0.3036 -0.2904,-0.22439 -0.4488,-0.56759 -0.1584,-0.3564 -0.1584,-0.8976 v -3.93358 h -1.05599 z"
         style="font-style:normal;font-variant:normal;font-weight:bold;font-stretch:normal;font-size:13.19993305px;line-height:1;font-family:'Neue Haas Grotesk Text Pro';-inkscape-font-specification:'Neue Haas Grotesk Text Pro Bold';stroke-width:0.27499861"
         id="path842"
         inkscape:connector-curvature="0" />
      <path
         d="m 181.7329,172.15169 h 2.09879 v 1.80839 h -2.09879 z m 0.0132,2.79839 h 2.07239 v 7.02236 h -2.07239 z"
         style="font-style:normal;font-variant:normal;font-weight:bold;font-stretch:normal;font-size:13.19993305px;line-height:1;font-family:'Neue Haas Grotesk Text Pro';-inkscape-font-specification:'Neue Haas Grotesk Text Pro Bold';stroke-width:0.27499861"
         id="path844"
         inkscape:connector-curvature="0" />
      <path
         d="m 188.59316,182.19684 q -0.84479,0 -1.53119,-0.2772 -0.6864,-0.2904 -1.1748,-0.79199 -0.48839,-0.5016 -0.75239,-1.1748 -0.264,-0.68639 -0.264,-1.47839 0,-0.792 0.264,-1.46519 0.264,-0.6864 0.75239,-1.188 0.4884,-0.50159 1.1748,-0.77879 0.6864,-0.2904 1.53119,-0.2904 0.8316,0 1.51799,0.2904 0.6864,0.2772 1.1616,0.77879 0.48839,0.5016 0.75239,1.188 0.264,0.67319 0.264,1.46519 0,0.792 -0.264,1.47839 -0.264,0.6732 -0.75239,1.1748 -0.4752,0.50159 -1.1616,0.79199 -0.68639,0.2772 -1.51799,0.2772 z m -0.0132,-1.50479 q 0.7788,0 1.18799,-0.6072 0.4224,-0.62039 0.4224,-1.61039 0,-1.00319 -0.4224,-1.62359 -0.40919,-0.6204 -1.18799,-0.6204 -0.792,0 -1.20119,0.6204 -0.4092,0.6204 -0.4092,1.62359 0,0.99 0.4092,1.61039 0.40919,0.6072 1.20119,0.6072 z"
         style="font-style:normal;font-variant:normal;font-weight:bold;font-stretch:normal;font-size:13.19993305px;line-height:1;font-family:'Neue Haas Grotesk Text Pro';-inkscape-font-specification:'Neue Haas Grotesk Text Pro Bold';stroke-width:0.27499861"
         id="path846"
         inkscape:connector-curvature="0" />
      <path
         d="m 195.32822,176.01927 h 0.0396 q 0.32999,-0.63359 0.87119,-0.95039 0.5544,-0.3168 1.29359,-0.3168 1.1616,0 1.7952,0.7128 0.64679,0.69959 0.64679,1.88759 v 4.61997 h -2.05919 v -4.22398 q 0,-0.58079 -0.3036,-0.92399 -0.29039,-0.3564 -0.87119,-0.3564 -0.6072,0 -0.9768,0.4356 -0.36959,0.4356 -0.36959,1.10879 v 3.95998 h -2.07239 v -7.02236 h 2.00639 z"
         style="font-style:normal;font-variant:normal;font-weight:bold;font-stretch:normal;font-size:13.19993305px;line-height:1;font-family:'Neue Haas Grotesk Text Pro';-inkscape-font-specification:'Neue Haas Grotesk Text Pro Bold';stroke-width:0.27499861"
         id="path848"
         inkscape:connector-curvature="0" />
      <path
         d="m 207.66685,182.15724 q -0.81839,0 -1.47839,-0.198 -0.6468,-0.2112 -1.10879,-0.58079 -0.4488,-0.3696 -0.6864,-0.8976 -0.2376,-0.528 -0.2376,-1.18799 0,-0.5676 0.1716,-1.0032 0.1716,-0.4488 0.4752,-0.79199 0.3036,-0.3432 0.69959,-0.594 0.396,-0.264 0.858,-0.4884 -0.3564,-0.4224 -0.5808,-0.91079 -0.2244,-0.4884 -0.2244,-1.0824 0,-0.5148 0.1848,-0.93719 0.198,-0.4356 0.5544,-0.7392 0.3564,-0.3168 0.858,-0.4884 0.50159,-0.1716 1.10879,-0.1716 0.5676,0 1.04279,0.1584 0.4884,0.1452 0.8448,0.4488 0.3564,0.2904 0.5544,0.7128 0.198,0.42239 0.198,0.96359 0,0.462 -0.1452,0.8316 -0.1452,0.3564 -0.396,0.64679 -0.2508,0.2772 -0.5808,0.5148 -0.33,0.2244 -0.69959,0.4092 l 0.38279,0.4752 q 0.0924,0.1188 0.2112,0.2772 0.1188,0.15839 0.2508,0.32999 0.132,0.1716 0.2508,0.3432 0.1188,0.1716 0.2112,0.3036 0.1452,-0.3432 0.2244,-0.6864 0.0924,-0.35639 0.1452,-0.73919 h 1.80839 q -0.1452,1.51799 -1.0164,2.78518 l 1.67639,2.11199 h -2.53438 l -0.198,-0.2376 -0.3168,-0.44879 q -0.528,0.38279 -1.16159,0.63359 -0.6336,0.2376 -1.3464,0.2376 z m 0.0264,-1.67639 q 0.8316,0 1.4784,-0.4488 l -1.88759,-2.42879 q -0.528,0.3432 -0.7656,0.7656 -0.2244,0.4092 -0.2244,0.8844 0,0.55439 0.396,0.89759 0.4092,0.33 1.00319,0.33 z m -0.2244,-6.11157 q 0,0.3828 0.198,0.6996 0.2112,0.3036 0.5544,0.62039 0.4752,-0.27719 0.66,-0.59399 0.1848,-0.33 0.1848,-0.7128 0,-0.3696 -0.2244,-0.6072 -0.2244,-0.23759 -0.5676,-0.23759 -0.3696,0 -0.594,0.22439 -0.2112,0.2244 -0.2112,0.6072 z"
         style="font-style:normal;font-variant:normal;font-weight:bold;font-stretch:normal;font-size:13.19993305px;line-height:1;font-family:'Neue Haas Grotesk Text Pro';-inkscape-font-specification:'Neue Haas Grotesk Text Pro Bold';stroke-width:0.27499861"
         id="path850"
         inkscape:connector-curvature="0" />
      <path
         d="m 121.94195,189.954 h 0.0396 q 0.3432,-0.73919 0.8184,-1.05599 0.4752,-0.3168 1.13519,-0.3168 0.3168,0 0.4356,0.0528 v 1.80839 h -0.0528 q -0.2244,-0.0396 -0.4356,-0.0396 -0.84479,-0.0132 -1.35959,0.5148 -0.5016,0.5148 -0.5016,1.54439 v 3.26038 h -2.07239 v -7.02236 h 1.99319 z"
         style="font-size:13.19993305px;line-height:0;fill:#9c9e9f;fill-opacity:1;stroke-width:0.27499861"
         id="path852"
         inkscape:connector-curvature="0" />
      <path
         d="m 128.75518,195.94677 q -0.84479,0 -1.53119,-0.2772 -0.6864,-0.29039 -1.17479,-0.79199 -0.4884,-0.5016 -0.7524,-1.1748 -0.264,-0.68639 -0.264,-1.47839 0,-0.79199 0.264,-1.46519 0.264,-0.6864 0.7524,-1.188 0.48839,-0.50159 1.17479,-0.77879 0.6864,-0.2904 1.53119,-0.2904 0.8316,0 1.51799,0.2904 0.6864,0.2772 1.1616,0.77879 0.4884,0.5016 0.75239,1.188 0.264,0.6732 0.264,1.46519 0,0.792 -0.264,1.47839 -0.26399,0.6732 -0.75239,1.1748 -0.4752,0.5016 -1.1616,0.79199 -0.68639,0.2772 -1.51799,0.2772 z m -0.0132,-1.50479 q 0.7788,0 1.188,-0.6072 0.42239,-0.62039 0.42239,-1.61039 0,-1.00319 -0.42239,-1.62359 -0.4092,-0.6204 -1.188,-0.6204 -0.79199,0 -1.20119,0.6204 -0.4092,0.6204 -0.4092,1.62359 0,0.99 0.4092,1.61039 0.4092,0.6072 1.20119,0.6072 z"
         style="font-style:normal;font-variant:normal;font-weight:bold;font-stretch:normal;font-size:13.19993305px;line-height:0;font-family:'Neue Haas Grotesk Text Pro';-inkscape-font-specification:'Neue Haas Grotesk Text Pro Bold';stroke-width:0.27499861"
         id="path854"
         inkscape:connector-curvature="0" />
      <path
         d="m 137.64183,195.94677 q -0.7128,0 -1.28039,-0.3036 -0.5544,-0.30359 -0.858,-0.95039 h -0.0264 v 1.02959 h -1.99319 v -9.82075 h 2.07239 v 2.15159 q 0,0.4488 -0.0264,0.8844 -0.0132,0.4224 -0.0396,0.73919 h 0.0396 q 0.3564,-0.54119 0.858,-0.85799 0.50159,-0.3168 1.24079,-0.3168 0.6864,0 1.24079,0.2772 0.5544,0.2772 0.9504,0.77879 0.396,0.4884 0.6072,1.1748 0.22439,0.6732 0.22439,1.47839 0,0.8712 -0.21119,1.57079 -0.2112,0.6864 -0.6072,1.1748 -0.396,0.47519 -0.9504,0.73919 -0.55439,0.2508 -1.24079,0.2508 z m -0.5544,-1.66319 q 0.726,0 1.0824,-0.5676 0.3696,-0.56759 0.3696,-1.51799 0,-0.95039 -0.3696,-1.53119 -0.3564,-0.594 -1.0956,-0.594 -0.40919,0 -0.71279,0.1716 -0.2904,0.1584 -0.4884,0.4488 -0.198,0.2772 -0.2904,0.6732 -0.0924,0.39599 -0.0924,0.84479 0,0.924 0.4224,1.50479 0.4224,0.5676 1.17479,0.5676 z"
         style="font-style:normal;font-variant:normal;font-weight:bold;font-stretch:normal;font-size:13.19993305px;line-height:0;font-family:'Neue Haas Grotesk Text Pro';-inkscape-font-specification:'Neue Haas Grotesk Text Pro Bold';stroke-width:0.27499861"
         id="path856"
         inkscape:connector-curvature="0" />
      <path
         d="m 145.07463,195.94677 q -0.8448,0 -1.53119,-0.2772 -0.6864,-0.29039 -1.1748,-0.79199 -0.48839,-0.5016 -0.75239,-1.1748 -0.264,-0.68639 -0.264,-1.47839 0,-0.79199 0.264,-1.46519 0.264,-0.6864 0.75239,-1.188 0.4884,-0.50159 1.1748,-0.77879 0.68639,-0.2904 1.53119,-0.2904 0.83159,0 1.51799,0.2904 0.6864,0.2772 1.1616,0.77879 0.48839,0.5016 0.75239,1.188 0.264,0.6732 0.264,1.46519 0,0.792 -0.264,1.47839 -0.264,0.6732 -0.75239,1.1748 -0.4752,0.5016 -1.1616,0.79199 -0.6864,0.2772 -1.51799,0.2772 z m -0.0132,-1.50479 q 0.7788,0 1.18799,-0.6072 0.4224,-0.62039 0.4224,-1.61039 0,-1.00319 -0.4224,-1.62359 -0.40919,-0.6204 -1.18799,-0.6204 -0.792,0 -1.20119,0.6204 -0.4092,0.6204 -0.4092,1.62359 0,0.99 0.4092,1.61039 0.40919,0.6072 1.20119,0.6072 z"
         style="font-style:normal;font-variant:normal;font-weight:bold;font-stretch:normal;font-size:13.19993305px;line-height:0;font-family:'Neue Haas Grotesk Text Pro';-inkscape-font-specification:'Neue Haas Grotesk Text Pro Bold';stroke-width:0.27499861"
         id="path858"
         inkscape:connector-curvature="0" />
      <path
         d="m 149.2652,188.70001 h 1.05599 v -2.24399 h 2.03279 v 2.24399 h 1.37279 V 190.02 h -1.37279 v 3.48478 q 0,0.396 0.198,0.5412 0.2112,0.132 0.5808,0.132 0.1056,0 0.23759,0 0.132,-0.0132 0.2376,-0.0264 h 0.1056 v 1.54439 q -0.1716,0.0264 -0.47519,0.066 -0.3036,0.0396 -0.726,0.0396 -0.4884,0 -0.8976,-0.0792 -0.39599,-0.0924 -0.68639,-0.30359 -0.2904,-0.2244 -0.4488,-0.5676 -0.1584,-0.3564 -0.1584,-0.8976 V 190.02 h -1.05599 z"
         style="font-style:normal;font-variant:normal;font-weight:bold;font-stretch:normal;font-size:13.19993305px;line-height:0;font-family:'Neue Haas Grotesk Text Pro';-inkscape-font-specification:'Neue Haas Grotesk Text Pro Bold';stroke-width:0.27499861"
         id="path860"
         inkscape:connector-curvature="0" />
      <path
         d="m 154.79164,185.90162 h 2.09878 v 1.80839 h -2.09878 z m 0.0132,2.79839 h 2.07238 v 7.02236 h -2.07238 z"
         style="font-style:normal;font-variant:normal;font-weight:bold;font-stretch:normal;font-size:13.19993305px;line-height:0;font-family:'Neue Haas Grotesk Text Pro';-inkscape-font-specification:'Neue Haas Grotesk Text Pro Bold';stroke-width:0.27499861"
         id="path862"
         inkscape:connector-curvature="0" />
      <path
         d="m 161.62549,195.94677 q -0.8448,0 -1.53119,-0.2772 -0.6732,-0.29039 -1.1616,-0.79199 -0.4752,-0.5016 -0.73919,-1.1748 -0.264,-0.68639 -0.264,-1.47839 0,-0.79199 0.2508,-1.46519 0.26399,-0.6864 0.73919,-1.188 0.4752,-0.50159 1.1484,-0.77879 0.67319,-0.2904 1.50479,-0.2904 0.69959,0 1.26719,0.198 0.5676,0.1848 0.9768,0.528 0.42239,0.34319 0.68639,0.83159 0.264,0.4752 0.3564,1.0428 h -2.00639 q -0.1056,-0.4884 -0.4224,-0.7656 -0.31679,-0.2904 -0.83159,-0.2904 -0.792,0 -1.188,0.594 -0.38279,0.594 -0.38279,1.58399 0,0.9636 0.38279,1.55759 0.396,0.594 1.188,0.594 0.5808,0 0.91079,-0.33 0.3432,-0.33 0.4092,-0.93719 h 1.99319 q -0.0264,0.59399 -0.2772,1.12199 -0.2376,0.5148 -0.65999,0.8976 -0.4224,0.38279 -1.0296,0.59399 -0.594,0.2244 -1.31999,0.2244 z"
         style="font-style:normal;font-variant:normal;font-weight:bold;font-stretch:normal;font-size:13.19993305px;line-height:0;font-family:'Neue Haas Grotesk Text Pro';-inkscape-font-specification:'Neue Haas Grotesk Text Pro Bold';stroke-width:0.27499861"
         id="path864"
         inkscape:connector-curvature="0" />
      <path
         d="m 168.78212,195.94677 q -0.7656,0 -1.37279,-0.1716 -0.6072,-0.1716 -1.0428,-0.48839 -0.42239,-0.3168 -0.67319,-0.7524 -0.2376,-0.4488 -0.2772,-0.9768 h 1.95359 q 0.0924,0.5016 0.4488,0.7656 0.36959,0.264 0.97679,0.264 0.5544,0 0.858,-0.2112 0.3036,-0.2112 0.3036,-0.594 0,-0.2376 -0.1452,-0.38279 -0.1452,-0.1452 -0.396,-0.2376 -0.2508,-0.0924 -0.5808,-0.1452 -0.3168,-0.066 -0.6864,-0.132 -0.47519,-0.0924 -0.92399,-0.2112 -0.4488,-0.1188 -0.8052,-0.3564 -0.3564,-0.2376 -0.58079,-0.6204 -0.2112,-0.38279 -0.2112,-1.00319 0,-0.5412 0.2244,-0.9504 0.23759,-0.40919 0.63359,-0.68639 0.396,-0.2772 0.9372,-0.4092 0.5412,-0.1452 1.16159,-0.1452 1.46519,0 2.21759,0.5808 0.7524,0.56759 0.8976,1.49159 h -1.92719 q -0.198,-0.7524 -1.188,-0.7524 -0.4752,0 -0.76559,0.1848 -0.2772,0.1848 -0.2772,0.528 0,0.198 0.132,0.33 0.132,0.1188 0.36959,0.198 0.2376,0.0792 0.5544,0.132 0.3168,0.0528 0.6732,0.1188 0.4752,0.0792 0.95039,0.21119 0.4752,0.1188 0.858,0.3696 0.3828,0.2508 0.6204,0.6732 0.25079,0.4092 0.25079,1.06919 0,0.5676 -0.23759,1.0032 -0.2376,0.4356 -0.66,0.726 -0.4224,0.29039 -1.0032,0.43559 -0.58079,0.1452 -1.26719,0.1452 z"
         style="font-style:normal;font-variant:normal;font-weight:bold;font-stretch:normal;font-size:13.19993305px;line-height:0;font-family:'Neue Haas Grotesk Text Pro';-inkscape-font-specification:'Neue Haas Grotesk Text Pro Bold';stroke-width:0.27499861"
         id="path866"
         inkscape:connector-curvature="0" />
      <path
         d="m 120.09396,199.65155 h 3.02279 l 1.22759,4.09198 q 0.132,0.462 0.264,1.056 0.132,0.594 0.2376,1.14839 0.132,0.6336 0.2376,1.2936 h 0.0396 q 0.1056,-0.66 0.2244,-1.2936 0.1056,-0.55439 0.2244,-1.14839 0.13199,-0.594 0.27719,-1.056 l 1.2012,-4.09198 h 3.06238 v 9.82075 h -2.07239 v -4.39557 q 0,-0.462 0.0264,-1.0692 0.0264,-0.60719 0.0528,-1.16159 0.0396,-0.6336 0.0792,-1.3068 h -0.0264 q -0.1188,0.6072 -0.2508,1.2012 -0.1056,0.5016 -0.2508,1.06919 -0.13199,0.5544 -0.26399,0.99 l -1.3992,4.67277 h -1.84799 l -1.41239,-4.67277 q -0.132,-0.4356 -0.2772,-0.99 -0.132,-0.56759 -0.2376,-1.06919 -0.132,-0.594 -0.2508,-1.2012 h -0.0264 q 0.0396,0.6732 0.0792,1.3068 0.0264,0.5544 0.0528,1.16159 0.0264,0.6072 0.0264,1.0692 v 4.39557 h -2.01959 z"
         style="font-style:normal;font-variant:normal;font-weight:bold;font-stretch:normal;font-size:13.19993305px;line-height:0;font-family:'Neue Haas Grotesk Text Pro';-inkscape-font-specification:'Neue Haas Grotesk Text Pro Bold';stroke-width:0.27499861"
         id="path868"
         inkscape:connector-curvature="0" />
      <path
         d="m 131.52201,207.30752 h 2.19119 v 2.16478 h -2.19119 z"
         style="font-style:normal;font-variant:normal;font-weight:bold;font-stretch:normal;font-size:13.19993305px;line-height:0;font-family:'Neue Haas Grotesk Text Pro';-inkscape-font-specification:'Neue Haas Grotesk Text Pro Bold';stroke-width:0.27499861"
         id="path870"
         inkscape:connector-curvature="0" />
      <path
         d="m 139.10764,209.7099 q -0.98999,0 -1.78199,-0.2244 -0.792,-0.22439 -1.35959,-0.64679 -0.5676,-0.4224 -0.8844,-1.0428 -0.3036,-0.63359 -0.33,-1.42559 h 2.27039 q 0.0924,0.8052 0.6072,1.17479 0.528,0.3696 1.47839,0.3696 0.33,0 0.6336,-0.066 0.3036,-0.066 0.5412,-0.198 0.23759,-0.1452 0.36959,-0.35639 0.1452,-0.2244 0.1452,-0.528 0,-0.3168 -0.1584,-0.528 -0.1452,-0.2112 -0.43559,-0.3564 -0.2904,-0.1452 -0.7128,-0.2508 -0.4224,-0.1188 -0.9504,-0.23759 -0.71279,-0.1584 -1.34639,-0.3564 -0.6336,-0.198 -1.10879,-0.5148 -0.4752,-0.33 -0.7524,-0.8184 -0.264,-0.50159 -0.264,-1.26719 0,-0.7656 0.2904,-1.31999 0.2904,-0.5544 0.8052,-0.9108 0.51479,-0.3696 1.21439,-0.5412 0.6996,-0.18479 1.51799,-0.18479 0.8052,0 1.49159,0.18479 0.6864,0.1848 1.188,0.5544 0.5016,0.3696 0.80519,0.924 0.3036,0.54119 0.3564,1.26719 h -2.20439 q -0.0924,-0.5808 -0.52799,-0.8976 -0.4356,-0.31679 -1.1748,-0.31679 -0.69959,0 -1.12199,0.27719 -0.4224,0.2772 -0.4224,0.7392 0,0.2904 0.1584,0.4752 0.1584,0.1848 0.462,0.33 0.3036,0.132 0.73919,0.2376 0.4488,0.1056 1.0296,0.23759 0.66,0.1452 1.26719,0.3564 0.6204,0.198 1.0824,0.5412 0.47519,0.3432 0.75239,0.858 0.2904,0.51479 0.2904,1.29359 0,0.7656 -0.3036,1.35959 -0.3036,0.5808 -0.84479,0.99 -0.528,0.396 -1.254,0.60719 -0.71279,0.2112 -1.55759,0.2112 z"
         style="font-style:normal;font-variant:normal;font-weight:bold;font-stretch:normal;font-size:13.19993305px;line-height:0;font-family:'Neue Haas Grotesk Text Pro';-inkscape-font-specification:'Neue Haas Grotesk Text Pro Bold';stroke-width:0.27499861"
         id="path872"
         inkscape:connector-curvature="0" />
      <path
         d="m 147.65212,209.6967 q -0.84479,0 -1.53119,-0.2772 -0.67319,-0.29039 -1.16159,-0.79199 -0.4752,-0.5016 -0.7392,-1.1748 -0.264,-0.68639 -0.264,-1.47839 0,-0.79199 0.2508,-1.46519 0.264,-0.6864 0.7392,-1.18799 0.4752,-0.5016 1.14839,-0.7788 0.6732,-0.2904 1.50479,-0.2904 0.6996,0 1.2672,0.198 0.5676,0.1848 0.97679,0.528 0.4224,0.3432 0.6864,0.83159 0.264,0.4752 0.3564,1.0428 h -2.00639 q -0.1056,-0.4884 -0.4224,-0.7656 -0.3168,-0.2904 -0.8316,-0.2904 -0.79199,0 -1.18799,0.594 -0.3828,0.594 -0.3828,1.58399 0,0.9636 0.3828,1.55759 0.396,0.594 1.18799,0.594 0.5808,0 0.9108,-0.33 0.3432,-0.33 0.4092,-0.93719 h 1.99319 q -0.0264,0.59399 -0.2772,1.12199 -0.2376,0.5148 -0.66,0.8976 -0.4224,0.3828 -1.02959,0.59399 -0.594,0.2244 -1.32,0.2244 z"
         style="font-style:normal;font-variant:normal;font-weight:bold;font-stretch:normal;font-size:13.19993305px;line-height:0;font-family:'Neue Haas Grotesk Text Pro';-inkscape-font-specification:'Neue Haas Grotesk Text Pro Bold';stroke-width:0.27499861"
         id="path874"
         inkscape:connector-curvature="0" />
      <path
         d="m 151.78597,207.30752 h 2.19119 v 2.16478 h -2.19119 z"
         style="font-style:normal;font-variant:normal;font-weight:bold;font-stretch:normal;font-size:13.19993305px;line-height:0;font-family:'Neue Haas Grotesk Text Pro';-inkscape-font-specification:'Neue Haas Grotesk Text Pro Bold';stroke-width:0.27499861"
         id="path877"
         inkscape:connector-curvature="0" />
      <path
         d="m 158.41419,202.44994 h 1.99319 v 1.00319 h 0.0396 q 0.7128,-1.20119 2.13839,-1.20119 0.6996,0 1.254,0.2772 0.56759,0.2772 0.95039,0.7788 0.396,0.48839 0.6072,1.17479 0.2112,0.6732 0.2112,1.47839 0,0.858 -0.2244,1.55759 -0.2112,0.6864 -0.6204,1.1748 -0.396,0.4752 -0.97679,0.73919 -0.5676,0.264 -1.2672,0.264 -0.69959,0 -1.24079,-0.2904 -0.528,-0.29039 -0.8316,-0.80519 h -0.0264 q 0.0264,0.198 0.0396,0.5808 0.0264,0.38279 0.0264,0.95039 v 1.67639 h -2.07239 z m 3.61679,5.63637 q 0.71279,0 1.09559,-0.5544 0.3828,-0.55439 0.3828,-1.50479 0,-0.95039 -0.3696,-1.53119 -0.3696,-0.594 -1.13519,-0.594 -0.396,0 -0.6996,0.1716 -0.2904,0.1584 -0.4884,0.4488 -0.198,0.2904 -0.3036,0.6732 -0.0924,0.38279 -0.0924,0.83159 0,0.9108 0.4092,1.49159 0.4092,0.5676 1.2012,0.5676 z"
         style="font-style:normal;font-variant:normal;font-weight:bold;font-stretch:normal;font-size:13.19993305px;line-height:0;font-family:'Neue Haas Grotesk Text Pro';-inkscape-font-specification:'Neue Haas Grotesk Text Pro Bold';stroke-width:0.27499861"
         id="path879"
         inkscape:connector-curvature="0" />
      <path
         d="m 168.63156,203.70393 h 0.0396 q 0.3432,-0.73919 0.8184,-1.05599 0.4752,-0.3168 1.13519,-0.3168 0.3168,0 0.4356,0.0528 v 1.80839 h -0.0528 q -0.2244,-0.0396 -0.4356,-0.0396 -0.84479,-0.0132 -1.35959,0.5148 -0.5016,0.5148 -0.5016,1.54439 v 3.26038 h -2.07239 v -7.02236 h 1.99319 z"
         style="font-style:normal;font-variant:normal;font-weight:bold;font-stretch:normal;font-size:13.19993305px;line-height:0;font-family:'Neue Haas Grotesk Text Pro';-inkscape-font-specification:'Neue Haas Grotesk Text Pro Bold';stroke-width:0.27499861"
         id="path881"
         inkscape:connector-curvature="0" />
      <path
         d="m 175.31589,209.6967 q -0.8448,0 -1.5312,-0.2772 -0.68639,-0.29039 -1.17479,-0.79199 -0.4884,-0.5016 -0.7524,-1.1748 -0.264,-0.68639 -0.264,-1.47839 0,-0.79199 0.264,-1.46519 0.264,-0.6864 0.7524,-1.18799 0.4884,-0.5016 1.17479,-0.7788 0.6864,-0.2904 1.5312,-0.2904 0.83159,0 1.51799,0.2904 0.68639,0.2772 1.16159,0.7788 0.4884,0.50159 0.7524,1.18799 0.264,0.6732 0.264,1.46519 0,0.792 -0.264,1.47839 -0.264,0.6732 -0.7524,1.1748 -0.4752,0.5016 -1.16159,0.79199 -0.6864,0.2772 -1.51799,0.2772 z m -0.0132,-1.50479 q 0.77879,0 1.18799,-0.6072 0.4224,-0.62039 0.4224,-1.61039 0,-1.00319 -0.4224,-1.62359 -0.4092,-0.6204 -1.18799,-0.6204 -0.792,0 -1.2012,0.6204 -0.4092,0.6204 -0.4092,1.62359 0,0.99 0.4092,1.61039 0.4092,0.6072 1.2012,0.6072 z"
         style="font-style:normal;font-variant:normal;font-weight:bold;font-stretch:normal;font-size:13.19993305px;line-height:0;font-family:'Neue Haas Grotesk Text Pro';-inkscape-font-specification:'Neue Haas Grotesk Text Pro Bold';stroke-width:0.27499861"
         id="path883"
         inkscape:connector-curvature="0" />
      <path
         d="m 183.30494,211.91429 q -1.45199,0 -2.33639,-0.5808 -0.8844,-0.56759 -1.04279,-1.61039 h 2.01958 q 0.1056,0.3168 0.4092,0.5148 0.3168,0.198 0.924,0.198 0.73919,0 1.09559,-0.3564 0.3696,-0.3564 0.3696,-1.00319 v -0.1452 q 0,-0.5676 0.0396,-0.924 h -0.0528 q -0.6204,1.0296 -1.90079,1.0296 -0.6072,0 -1.16159,-0.2112 -0.5544,-0.2244 -0.9768,-0.6468 -0.4224,-0.4356 -0.6732,-1.05599 -0.25079,-0.6204 -0.25079,-1.4124 0,-0.76559 0.21119,-1.39919 0.2244,-0.6468 0.6204,-1.09559 0.396,-0.462 0.9372,-0.7128 0.54119,-0.2508 1.18799,-0.2508 0.7128,0 1.21439,0.2508 0.5016,0.2508 0.8052,0.8448 h 0.0264 v -0.8976 h 1.97999 v 6.40197 q 0,0.79199 -0.2508,1.34639 -0.2376,0.5676 -0.65999,0.9504 -0.462,0.39599 -1.1088,0.58079 -0.6468,0.1848 -1.42559,0.1848 z m -0.0132,-4.43518 q 0.396,0 0.67319,-0.13199 0.2904,-0.1452 0.4752,-0.396 0.198,-0.2508 0.2772,-0.5808 0.0924,-0.33 0.0924,-0.726 0,-0.77879 -0.3828,-1.29359 -0.3828,-0.528 -1.14839,-0.528 -0.6864,0 -1.0824,0.5016 -0.39599,0.4884 -0.39599,1.33319 0,0.8316 0.39599,1.3332 0.396,0.48839 1.0956,0.48839 z"
         style="font-style:normal;font-variant:normal;font-weight:bold;font-stretch:normal;font-size:13.19993305px;line-height:0;font-family:'Neue Haas Grotesk Text Pro';-inkscape-font-specification:'Neue Haas Grotesk Text Pro Bold';stroke-width:0.27499861"
         id="path885"
         inkscape:connector-curvature="0" />
      <path
         d="m 190.13302,203.70393 h 0.0396 q 0.34319,-0.73919 0.81839,-1.05599 0.4752,-0.3168 1.1352,-0.3168 0.31679,0 0.43559,0.0528 v 1.80839 h -0.0528 q -0.22439,-0.0396 -0.43559,-0.0396 -0.8448,-0.0132 -1.3596,0.5148 -0.50159,0.5148 -0.50159,1.54439 v 3.26038 h -2.07239 v -7.02236 h 1.99319 z"
         style="font-style:normal;font-variant:normal;font-weight:bold;font-stretch:normal;font-size:13.19993305px;line-height:0;font-family:'Neue Haas Grotesk Text Pro';-inkscape-font-specification:'Neue Haas Grotesk Text Pro Bold';stroke-width:0.27499861"
         id="path887"
         inkscape:connector-curvature="0" />
      <path
         d="m 197.92613,209.4723 q -0.0792,-0.1188 -0.1452,-0.32999 -0.066,-0.2244 -0.0924,-0.528 h -0.0264 q -0.3432,0.4884 -0.83159,0.76559 -0.4752,0.2772 -1.2936,0.2772 -0.5148,0 -0.96359,-0.1452 -0.4356,-0.132 -0.7656,-0.39599 -0.3168,-0.264 -0.5016,-0.66 -0.1716,-0.4092 -0.1716,-0.924 0,-0.58079 0.2112,-0.96359 0.2244,-0.3828 0.594,-0.6204 0.3696,-0.2376 0.8712,-0.3564 0.50159,-0.132 1.08239,-0.19799 0.9372,-0.132 1.34639,-0.3168 0.4224,-0.1848 0.4224,-0.5808 0,-0.3828 -0.2508,-0.6072 -0.2508,-0.2376 -0.79199,-0.2376 -0.594,0 -0.8976,0.2508 -0.2904,0.2508 -0.33,0.6732 h -1.91399 q 0.0132,-0.4488 0.2112,-0.8712 0.198,-0.42239 0.5808,-0.73919 0.3828,-0.33 0.96359,-0.5148 0.5808,-0.198 1.3596,-0.198 0.67319,0 1.16159,0.1056 0.4884,0.0924 0.858,0.3168 0.55439,0.3168 0.80519,0.85799 0.264,0.528 0.264,1.2408 v 3.60358 q 0,0.8052 0.264,0.97679 v 0.1188 z m -1.74239,-1.17479 q 0.69959,0 1.10879,-0.3828 0.4224,-0.3828 0.4224,-0.96359 v -0.9108 q -0.2244,0.1452 -0.5544,0.2376 -0.31679,0.0792 -0.65999,0.1584 -0.6864,0.1452 -1.0164,0.3564 -0.33,0.2112 -0.33,0.67319 0,0.462 0.3036,0.6468 0.3036,0.1848 0.726,0.1848 z"
         style="font-style:normal;font-variant:normal;font-weight:bold;font-stretch:normal;font-size:13.19993305px;line-height:0;font-family:'Neue Haas Grotesk Text Pro';-inkscape-font-specification:'Neue Haas Grotesk Text Pro Bold';stroke-width:0.27499861"
         id="path889"
         inkscape:connector-curvature="0" />
      <path
         d="m 201.08195,202.44994 h 1.99319 v 1.09559 h 0.0396 q 0.3432,-0.63359 0.8448,-0.96359 0.51479,-0.33 1.26719,-0.33 1.38599,0 1.92719,1.33319 h 0.0264 q 0.4356,-0.71279 0.98999,-1.01639 0.5676,-0.3168 1.2408,-0.3168 1.17479,0 1.76879,0.7128 0.594,0.69959 0.594,1.87439 v 4.63317 h -2.05919 v -4.28997 q 0,-0.5808 -0.2772,-0.8976 -0.264,-0.33 -0.7656,-0.33 -0.5544,0 -0.88439,0.4224 -0.3168,0.4224 -0.3168,1.09559 v 3.99958 h -2.07239 v -4.28997 q 0,-0.5808 -0.264,-0.8976 -0.2508,-0.33 -0.7656,-0.33 -0.55439,0 -0.88439,0.4224 -0.33,0.4224 -0.33,1.09559 v 3.99958 h -2.07239 z"
         style="font-style:normal;font-variant:normal;font-weight:bold;font-stretch:normal;font-size:13.19993305px;line-height:0;font-family:'Neue Haas Grotesk Text Pro';-inkscape-font-specification:'Neue Haas Grotesk Text Pro Bold';stroke-width:0.27499861"
         id="path891"
         inkscape:connector-curvature="0" />
      <path
         d="m 213.09595,202.44994 h 1.99319 v 1.09559 h 0.0396 q 0.3432,-0.63359 0.8448,-0.96359 0.51479,-0.33 1.26719,-0.33 1.38599,0 1.92719,1.33319 h 0.0264 q 0.4356,-0.71279 0.98999,-1.01639 0.5676,-0.3168 1.2408,-0.3168 1.17479,0 1.76879,0.7128 0.594,0.69959 0.594,1.87439 v 4.63317 h -2.05919 v -4.28997 q 0,-0.5808 -0.2772,-0.8976 -0.264,-0.33 -0.7656,-0.33 -0.5544,0 -0.88439,0.4224 -0.3168,0.4224 -0.3168,1.09559 v 3.99958 h -2.07239 v -4.28997 q 0,-0.5808 -0.264,-0.8976 -0.2508,-0.33 -0.7656,-0.33 -0.55439,0 -0.88439,0.4224 -0.33,0.4224 -0.33,1.09559 v 3.99958 h -2.07239 z"
         style="font-style:normal;font-variant:normal;font-weight:bold;font-stretch:normal;font-size:13.19993305px;line-height:0;font-family:'Neue Haas Grotesk Text Pro';-inkscape-font-specification:'Neue Haas Grotesk Text Pro Bold';stroke-width:0.27499861"
         id="path893"
         inkscape:connector-curvature="0" />
      <path
         d="m 228.48913,209.6835 q -0.85799,0 -1.54439,-0.2772 -0.6864,-0.29039 -1.17479,-0.79199 -0.4752,-0.5016 -0.7392,-1.1748 -0.2508,-0.67319 -0.2508,-1.46519 0,-0.79199 0.264,-1.46519 0.264,-0.6864 0.7392,-1.18799 0.47519,-0.5016 1.13519,-0.7788 0.66,-0.2904 1.46519,-0.2904 0.7524,0 1.3464,0.2376 0.60719,0.2376 1.06919,0.66 0.594,0.58079 0.8712,1.43879 0.2772,0.85799 0.264,1.90079 h -5.12158 q 0.1056,0.792 0.528,1.24079 0.4224,0.4488 1.17479,0.4488 0.4884,0 0.792,-0.1716 0.3168,-0.1848 0.4884,-0.5148 h 2.00639 q -0.132,0.462 -0.4224,0.8712 -0.2772,0.396 -0.6996,0.6996 -0.4092,0.29039 -0.96359,0.44879 -0.5544,0.1716 -1.2276,0.1716 z m -0.1056,-5.96637 q -0.71279,0 -1.08239,0.4224 -0.3696,0.4224 -0.4752,1.1484 h 2.99639 q -0.0528,-0.7392 -0.4356,-1.1484 -0.3828,-0.4224 -1.0032,-0.4224 z"
         style="font-style:normal;font-variant:normal;font-weight:bold;font-stretch:normal;font-size:13.19993305px;line-height:0;font-family:'Neue Haas Grotesk Text Pro';-inkscape-font-specification:'Neue Haas Grotesk Text Pro Bold';stroke-width:0.27499861"
         id="path895"
         inkscape:connector-curvature="0" />
    </g>
    <text
       xml:space="preserve"
       style="font-style:normal;font-weight:normal;font-size:10.58333302px;line-height:1.25;font-family:sans-serif;letter-spacing:0px;word-spacing:0px;fill:#000000;fill-opacity:1;stroke:none;stroke-width:0.26458332"
       x="38.887718"
       y="126.53705"
       id="text866"><tspan
         sodipodi:role="line"
         id="tspan864"
         x="38.887718"
         y="136.19255"
         style="stroke-width:0.26458332" /></text>
    <g
       aria-label="CoRo"
       style="font-style:normal;font-weight:normal;font-size:16.02369881px;line-height:1.25;font-family:sans-serif;letter-spacing:0px;word-spacing:0px;fill:#000000;fill-opacity:1;stroke:none;stroke-width:0.40059248"
       id="text870"
       transform="translate(228.83115,195.96189)">
      <path
         d="m 29.636686,9.2672719 q -2.768895,0 -5.0934,-0.9913328 -2.29032,-0.9913329 -3.931147,-2.7347113 -1.640827,-1.7775624 -2.563792,-4.2046186 -0.888781,-2.4270563 -0.888781,-5.2643193 0,-2.837263 0.888781,-5.2643193 0.888781,-2.4270566 2.495424,-4.2046186 1.640827,-1.777562 3.931148,-2.768895 2.324504,-1.025517 5.161767,-1.025517 2.119402,0 3.896964,0.512758 1.777562,0.478575 3.07655,1.469908 1.743379,1.264804 2.700528,3.07655 0.991332,1.811746 1.23062,3.9653314 h -5.811262 q -0.273471,-1.8117463 -1.640827,-2.9739984 -1.333171,-1.196436 -3.486757,-1.196436 -1.640826,0 -2.871446,0.649494 -1.196437,0.61531 -2.01685,1.743378 -0.78623,1.1280684 -1.196436,2.6663435 -0.410207,1.5382752 -0.410207,3.3500214 0,1.8117462 0.444391,3.35002134 0.478574,1.53827511 1.298988,2.66634356 0.854597,1.0938845 2.051033,1.7433784 1.23062,0.6153101 2.734711,0.6153101 2.358689,0 3.726044,-1.3331718 1.367356,-1.3331718 1.572459,-3.31583745 h 5.845446 Q 40.643899,1.712632 39.823486,3.4218265 39.003073,5.0968372 37.704085,6.3958251 36.268361,7.8315485 34.285696,8.5494102 32.30303,9.2672719 29.636686,9.2672719 Z"
         style="font-style:normal;font-variant:normal;font-weight:bold;font-stretch:normal;font-size:34.1838913px;line-height:1;font-family:'Neue Haas Grotesk Text Pro';-inkscape-font-specification:'Neue Haas Grotesk Text Pro Bold';stroke-width:0.40059248"
         id="path876"
         inkscape:connector-curvature="0" />
      <path
         d="m 52.533484,9.2672719 q -2.187769,0 -3.965332,-0.7178617 Q 46.79059,7.7973646 45.525786,6.4983767 44.260982,5.1993889 43.577304,3.4560104 42.893626,1.6784481 42.893626,-0.37258541 q 0,-2.05103349 0.683678,-3.79441189 0.683678,-1.7775624 1.948482,-3.0765503 1.264804,-1.2989878 3.042366,-2.0168495 1.777563,-0.7520459 3.965332,-0.7520459 2.153585,0 3.931147,0.7520459 1.777562,0.7178617 3.008183,2.0168495 1.264803,1.2989879 1.948481,3.0765503 0.683678,1.7433784 0.683678,3.79441189 0,2.05103351 -0.683678,3.82859581 -0.683678,1.7433785 -1.948481,3.0423663 -1.230621,1.2989879 -3.008183,2.0510335 -1.777562,0.7178617 -3.931147,0.7178617 z M 52.4993,5.3703083 q 2.016849,0 3.07655,-1.572459 1.093884,-1.6066429 1.093884,-4.17043471 0,-2.59797569 -1.093884,-4.20461859 -1.059701,-1.6066429 -3.07655,-1.6066429 -2.051034,0 -3.110734,1.6066429 -1.059701,1.6066429 -1.059701,4.20461859 0,2.56379181 1.059701,4.17043471 1.0597,1.572459 3.110734,1.572459 z"
         style="font-style:normal;font-variant:normal;font-weight:bold;font-stretch:normal;font-size:34.1838913px;line-height:1;font-family:'Neue Haas Grotesk Text Pro';-inkscape-font-specification:'Neue Haas Grotesk Text Pro Bold';stroke-width:0.40059248"
         id="path878"
         inkscape:connector-curvature="0" />
      <path
         d="m 65.155351,-16.746669 h 12.101098 q 1.84593,0 3.418389,0.478574 1.606643,0.478575 2.768895,1.435724 1.162253,0.922965 1.811746,2.29032 0.683678,1.333172 0.683678,3.0765505 0,2.2561368 -1.128068,3.8285958 -1.128069,1.572459 -3.589309,2.3586885 v 0.1025517 q 1.914298,0.5811262 2.803079,1.7433785 0.922965,1.12806837 1.196437,3.1791018 0.170919,1.2989879 0.239287,2.4612402 0.102551,1.1280684 0.170919,2.0510335 0.102552,0.8887812 0.239287,1.4699073 0.136736,0.5469423 0.444391,0.6836779 V 8.6861458 H 80.572286 Q 80.298815,8.5494102 80.16208,8.002468 80.059528,7.4555257 79.956976,6.6692962 79.888609,5.8488828 79.820241,4.85755 79.751873,3.8662171 79.649321,2.8065165 79.410034,0.89221857 78.384517,-0.06493039 77.393184,-1.0220793 75.273783,-1.0220793 h -4.30717 v 9.7082251 h -5.811262 z m 5.811262,11.4174194 h 5.161767 q 1.948482,0 2.973999,-0.8887812 1.025517,-0.9229651 1.025517,-2.4612402 0,-1.572459 -0.957149,-2.495424 -0.922965,-0.957149 -2.871447,-0.957149 h -5.332687 z"
         style="font-style:normal;font-variant:normal;font-weight:bold;font-stretch:normal;font-size:34.1838913px;line-height:1;font-family:'Neue Haas Grotesk Text Pro';-inkscape-font-specification:'Neue Haas Grotesk Text Pro Bold';stroke-width:0.40059248"
         id="path880"
         inkscape:connector-curvature="0" />
      <path
         d="m 97.800432,9.2672719 q -2.187769,0 -3.965331,-0.7178617 Q 92.057539,7.7973646 90.792735,6.4983767 89.527931,5.1993889 88.844253,3.4560104 88.160575,1.6784481 88.160575,-0.37258541 q 0,-2.05103349 0.683678,-3.79441189 0.683678,-1.7775624 1.948482,-3.0765503 1.264804,-1.2989878 3.042366,-2.0168495 1.777562,-0.7520459 3.965331,-0.7520459 2.153585,0 3.931148,0.7520459 1.77756,0.7178617 3.00818,2.0168495 1.26481,1.2989879 1.94848,3.0765503 0.68368,1.7433784 0.68368,3.79441189 0,2.05103351 -0.68368,3.82859581 -0.68367,1.7433785 -1.94848,3.0423663 -1.23062,1.2989879 -3.00818,2.0510335 -1.777563,0.7178617 -3.931148,0.7178617 z m -0.03418,-3.8969636 q 2.01685,0 3.076548,-1.572459 1.09388,-1.6066429 1.09388,-4.17043471 0,-2.59797569 -1.09388,-4.20461859 -1.059698,-1.6066429 -3.076548,-1.6066429 -2.051033,0 -3.110734,1.6066429 -1.0597,1.6066429 -1.0597,4.20461859 0,2.56379181 1.0597,4.17043471 1.059701,1.572459 3.110734,1.572459 z"
         style="font-style:normal;font-variant:normal;font-weight:bold;font-stretch:normal;font-size:34.1838913px;line-height:1;font-family:'Neue Haas Grotesk Text Pro';-inkscape-font-specification:'Neue Haas Grotesk Text Pro Bold';stroke-width:0.40059248"
         id="path882"
         inkscape:connector-curvature="0" />
    </g>
    <rect
       style="fill:#000000;fill-opacity:1;stroke-width:0.26458332"
       id="rect885-3"
       width="1.3229166"
       height="42.809586"
       x="238.30136"
       y="170.5952" />
  </g>
</svg>
