<?xml version="1.0" encoding="UTF-8" standalone="no"?>
<!-- Created with Inkscape (http://www.inkscape.org/) -->
<svg
   xmlns:svg="http://www.w3.org/2000/svg"
   xmlns="http://www.w3.org/2000/svg"
   version="1.0"
   width="1109.4094"
   height="262.20471"
   id="svg2">
  <defs
     id="defs4">
    <clipPath
       id="clipPath2349">
      <path
         d="M 0,595.32 L 297.6,595.32 L 297.6,0.12 L 0,0.12 L 0,595.32 z"
         id="path2351" />
    </clipPath>
    <clipPath
       id="clipPath2341">
      <path
         d="M 0,595 L 297,595 L 297,0 L 0,0 L 0,595 z"
         id="path2343" />
    </clipPath>
  </defs>
  <g
     transform="translate(283.39337,-314.03897)"
     id="layer1">
    <g
       transform="translate(35.353682,35.350201)"
       id="g2800">
      <path
         d="M -220.56501,503.94964 L -283.39337,503.94964 L -283.39337,316.49866 C -283.39337,316.24758 -283.39337,315.1071 -283.39337,315.1071 L -180.3632,315.1071 C -152.42152,315.10285 -128.33107,333.18877 -120.46689,357.16857 C -113.18571,379.38234 -119.41152,403.52385 -135.83779,420.70334 C -133.65046,426.62276 -131.52696,431.2485 -129.49708,436.56789 C -124.93943,447.08325 -120.76052,457.59437 -116.19861,467.98207 L -101.25326,503.94964 L -164.96251,503.94964 C -164.96251,503.98369 -165.46891,502.43043 -165.97532,501.79635 C -168.50735,496.22589 -170.7883,490.27243 -173.32033,484.69771 L -188.64868,448.34714 C -194.72555,433.65712 -200.80668,419.77564 -206.88354,405.08136 C -199.29597,404.87284 -193.62337,406.29418 -186.29964,402.93233 C -181.15473,400.4003 -173.35863,394.1064 -173.15862,382.03777 C -173.35863,376.05453 -175.01403,371.53092 -178.96314,366.82007 C -182.93779,362.44115 -188.67421,359.19419 -196.1554,359.08781 C -196.1554,359.08781 -220.57778,359.07504 -220.56501,359.08781 L -220.56501,503.94964"
         id="path2357"
         style="fill:#1569b7;fill-opacity:1;fill-rule:evenodd;stroke:none" />
      <path
         d="M 475.49184,476.70586 L 468.86176,476.70586 L 459.12515,504.6518 L 464.98924,504.6518 L 466.94252,499.05581 L 477.29618,499.05581 L 479.21116,504.6518 L 485.07525,504.6518 L 475.49184,476.70586 z M 472.19808,483.4168 L 475.91314,494.2641 L 468.74686,494.2641 L 472.19808,483.4168"
         id="path2361"
         style="fill:#1569b7;fill-opacity:1;fill-rule:evenodd;stroke:none" />
      <path
         d="M 502.96116,476.70586 L 496.33108,476.70586 L 486.59447,504.6518 L 492.45856,504.6518 L 494.41184,499.05581 L 504.7655,499.05581 L 506.68048,504.6518 L 512.54457,504.6518 L 502.96116,476.70586 z M 499.66314,483.4168 L 503.38246,494.2641 L 496.21618,494.2641 L 499.66314,483.4168"
         id="path2365"
         style="fill:#1569b7;fill-opacity:1;fill-rule:evenodd;stroke:none" />
      <path
         d="M 531.94119,495.10669 C 531.71139,496.33228 531.59224,499.1707 527.60908,500.28139 C 526.80053,500.51119 525.95794,500.62609 525.19195,500.58779 C 524.38766,500.58779 523.65997,500.43459 522.93227,500.12819 C 521.51093,499.4771 520.24705,498.25151 519.32786,496.22164 C 518.56186,494.4939 518.37037,492.34912 518.44697,490.35329 C 518.56186,488.36171 518.94486,486.51907 519.32786,485.52328 C 520.24705,483.14871 522.27693,481.26777 524.88555,481.07627 C 530.48155,480.65498 531.78799,484.60409 531.94119,486.17438 L 537.42229,486.17438 C 537.38399,484.75729 537.19249,481.15287 533.16678,478.4336 C 530.44325,476.47607 527.64738,476.24627 525.65155,476.24627 C 518.40867,476.24627 515.07235,480.34858 513.50206,485.56158 C 513.04247,487.13186 512.84671,489.0511 512.84671,490.92778 C 512.84671,492.77042 513.07651,494.5322 513.38716,495.83864 C 514.88085,501.74103 519.21296,505.72419 525.42175,505.53695 C 528.87297,505.41779 532.01779,504.11561 533.66467,502.81342 C 535.77115,501.16654 537.38399,497.94512 537.42229,495.10669 L 531.94119,495.10669"
         id="path2369"
         style="fill:#1569b7;fill-opacity:1;fill-rule:nonzero;stroke:none" />
      <path
         d="M 540.85648,504.6518 L 546.60568,504.6518 L 546.60568,492.00442 L 557.68703,492.00442 L 557.68703,504.6518 L 563.43622,504.6518 L 563.43622,476.70586 L 557.68703,476.70586 L 557.68703,487.21272 L 546.60568,487.21272 L 546.60568,476.70586 L 540.85648,476.70586 L 540.85648,504.6518"
         id="path2373"
         style="fill:#1569b7;fill-opacity:1;fill-rule:nonzero;stroke:none" />
      <path
         d="M 567.98537,476.70586 L 567.98537,504.6518 L 588.87992,504.6518 L 588.87992,499.8601 L 573.73882,499.8601 L 573.73882,492.65552 L 587.11389,492.65552 L 587.11389,487.86381 L 573.73882,487.86381 L 573.73882,481.49757 L 588.22883,481.49757 L 588.22883,476.70586 L 567.98537,476.70586"
         id="path2377"
         style="fill:#1569b7;fill-opacity:1;fill-rule:nonzero;stroke:none" />
      <path
         d="M 592.95245,476.70586 L 592.95245,504.6518 L 598.70164,504.6518 L 598.70164,485.17859 L 610.01279,504.6518 L 615.68538,504.6518 L 615.68538,476.70586 L 609.93619,476.70586 L 609.93619,495.91098 L 598.62504,476.70586 L 592.95245,476.70586"
         id="path2381"
         style="fill:#1569b7;fill-opacity:1;fill-rule:nonzero;stroke:none" />
      <path
         d="M 460.73373,464.10104 L 466.48293,464.10104 L 466.48293,451.44941 L 477.56428,451.44941 L 477.56428,464.10104 L 483.31347,464.10104 L 483.31347,436.1551 L 477.56428,436.1551 L 477.56428,446.6577 L 466.48293,446.6577 L 466.48293,436.1551 L 460.73373,436.1551 L 460.73373,464.10104"
         id="path2385"
         style="fill:#1569b7;fill-opacity:1;fill-rule:nonzero;stroke:none" />
      <path
         d="M 514.42125,450.33872 C 514.42125,446.12151 512.88927,441.9043 510.28064,439.18503 C 507.94437,436.7679 504.53145,435.69551 500.96533,435.69551 C 497.39921,435.69551 493.98629,436.7679 491.65002,439.18503 C 489.04564,441.9043 487.5094,446.12151 487.5094,450.33872 C 487.5094,454.55593 489.04564,458.77314 491.65002,461.49241 C 493.98629,463.90954 497.39921,464.98193 500.96533,464.98193 C 504.53145,464.98193 507.94437,463.90954 510.28064,461.49241 C 512.88927,458.77314 514.42125,454.55593 514.42125,450.33872 z M 500.96533,459.96043 C 499.12695,459.96043 497.28431,459.42424 495.82893,458.07949 C 493.98629,456.39431 493.0671,453.36864 493.0288,450.33872 C 493.0671,447.3088 493.98629,444.28313 495.82893,442.59369 C 497.28431,441.2532 499.12695,440.71701 500.96533,440.71701 C 502.80371,440.71701 504.64634,441.2532 506.10173,442.59369 C 507.94437,444.28313 508.86356,447.3088 508.90186,450.33872 C 508.86356,453.36864 507.94437,456.39431 506.10173,458.07949 C 504.64634,459.42424 502.80371,459.96043 500.96533,459.96043"
         id="path2389"
         style="fill:#1569b7;fill-opacity:1;fill-rule:evenodd;stroke:none" />
      <path
         d="M 535.97541,454.55593 C 535.74136,455.78152 535.62646,458.61994 531.6433,459.73063 C 530.83476,459.96043 529.99217,460.07533 529.22617,460.03703 C 528.42188,460.03703 527.69419,459.88383 526.9665,459.57743 C 525.54516,458.92634 524.28127,457.6965 523.36208,455.66662 C 522.59609,453.94314 522.40459,451.7941 522.48119,449.80253 C 522.59609,447.80669 522.97908,445.96831 523.36208,444.97252 C 524.28127,442.59369 526.31115,440.71701 528.91978,440.52551 C 534.51577,440.10422 535.81796,444.05333 535.97541,445.62361 L 541.45651,445.62361 C 541.41821,444.20653 541.22671,440.60211 537.201,437.87858 C 534.47747,435.92531 531.6816,435.69551 529.68577,435.69551 C 522.44289,435.69551 519.10657,439.79782 517.53629,445.01082 C 517.07669,446.5811 516.88519,448.49608 516.88519,450.37702 C 516.88519,452.2154 517.11074,453.98144 517.42139,455.28362 C 518.91507,461.18602 523.24718,465.17343 529.45597,464.98193 C 532.90719,464.86703 536.04776,463.56485 537.6989,462.26266 C 539.80537,460.61152 541.41821,457.3901 541.45651,454.55593 L 535.97541,454.55593"
         id="path2393"
         style="fill:#1569b7;fill-opacity:1;fill-rule:nonzero;stroke:none" />
      <path
         d="M 545.65245,464.10104 L 551.40164,464.10104 L 551.40164,451.44941 L 562.47873,451.44941 L 562.47873,464.10104 L 568.23218,464.10104 L 568.23218,436.1551 L 562.47873,436.1551 L 562.47873,446.6577 L 551.40164,446.6577 L 551.40164,436.1551 L 545.65245,436.1551 L 545.65245,464.10104"
         id="path2397"
         style="fill:#1569b7;fill-opacity:1;fill-rule:nonzero;stroke:none" />
      <path
         d="M 593.85887,444.66612 C 594.08867,443.74693 593.70567,441.13831 592.25029,439.26163 C 589.52676,435.81041 584.31376,435.69551 582.82008,435.69551 C 575.99424,435.69551 572.77707,438.99353 572.31748,443.43628 C 571.85788,447.96415 574.34735,450.14722 577.37728,451.18131 C 580.97744,452.4069 586.50109,452.4069 588.33947,454.32613 C 589.71826,455.70492 589.45016,457.888 588.22457,459.04124 C 587.49688,459.73063 585.6968,460.30513 583.77757,460.34343 C 581.86259,460.42002 579.79015,459.99873 578.52627,458.69654 C 577.56878,457.6965 577.33898,456.54751 577.33898,455.81982 L 571.74298,455.81982 C 571.93448,458.46249 573.16007,461.22432 575.64954,463.02865 C 577.72197,464.52234 581.09659,465.02023 582.51368,464.98193 C 585.61595,464.94363 588.87567,464.56064 591.2545,463.02865 C 594.74402,460.76472 596.2377,454.13464 593.01628,450.76002 C 591.2545,448.95993 587.95648,448.26629 586.42449,447.99819 C 585.34785,447.80669 580.05825,446.9641 579.40716,446.27471 C 578.14327,445.77681 577.49218,445.39382 577.64537,443.47884 C 577.83687,441.17661 579.90505,440.21912 582.70518,440.25742 C 586.65429,440.33401 588.53097,442.40219 588.45437,444.66612 L 593.85887,444.66612"
         id="path2401"
         style="fill:#1569b7;fill-opacity:1;fill-rule:nonzero;stroke:none" />
      <path
         d="M 617.05991,454.55593 C 616.83012,455.78152 616.71522,458.61994 612.7278,459.73063 C 611.92351,459.96043 611.08092,460.07533 610.31067,460.03703 C 609.50638,460.03703 608.77869,459.88383 608.051,459.57743 C 606.63391,458.92634 605.36577,457.6965 604.44658,455.66662 C 603.68059,453.94314 603.48909,451.7941 603.56569,449.80253 C 603.68059,447.80669 604.06358,445.96831 604.44658,444.97252 C 605.36577,442.59369 607.3999,440.71701 610.00428,440.52551 C 615.60453,440.10422 616.90672,444.05333 617.05991,445.62361 L 622.54101,445.62361 C 622.50271,444.20653 622.31121,440.60211 618.2855,437.87858 C 615.56623,435.92531 612.7661,435.69551 610.77027,435.69551 C 603.52739,435.69551 600.19107,439.79782 598.62079,445.01082 C 598.16119,446.5811 597.96969,448.49608 597.96969,450.37702 C 597.96969,452.2154 598.19949,453.98144 598.50589,455.28362 C 599.99957,461.18602 604.33168,465.17343 610.54473,464.98193 C 613.99169,464.86703 617.13651,463.56485 618.7834,462.26266 C 620.89413,460.61152 622.50271,457.3901 622.54101,454.55593 L 617.05991,454.55593"
         id="path2405"
         style="fill:#1569b7;fill-opacity:1;fill-rule:nonzero;stroke:none" />
      <path
         d="M 626.73695,464.10104 L 632.48614,464.10104 L 632.48614,451.44941 L 643.56749,451.44941 L 643.56749,464.10104 L 649.31668,464.10104 L 649.31668,436.1551 L 643.56749,436.1551 L 643.56749,446.6577 L 632.48614,446.6577 L 632.48614,436.1551 L 626.73695,436.1551 L 626.73695,464.10104"
         id="path2409"
         style="fill:#1569b7;fill-opacity:1;fill-rule:nonzero;stroke:none" />
      <path
         d="M 670.92191,436.1551 L 670.92191,455.51342 C 670.92191,457.2752 670.11762,459.99873 665.55146,459.99873 C 660.87465,459.99873 660.34271,457.2752 660.26611,455.51342 L 660.26611,436.1551 L 654.51266,436.1551 L 654.51266,455.43682 C 654.51266,458.19439 655.66591,461.49241 660.30016,464.06274 C 661.8364,464.63724 663.75138,464.98193 665.70891,464.98193 C 667.66219,464.98193 669.69632,464.59894 671.41981,463.83294 C 676.05831,461.56901 676.67111,457.888 676.67111,455.43682 L 676.67111,436.1551 L 670.92191,436.1551"
         id="path2413"
         style="fill:#1569b7;fill-opacity:1;fill-rule:nonzero;stroke:none" />
      <path
         d="M 681.75644,436.1551 L 681.75644,464.10104 L 700.88496,464.10104 L 700.88496,459.30934 L 687.50564,459.30934 L 687.50564,436.1551 L 681.75644,436.1551"
         id="path2417"
         style="fill:#1569b7;fill-opacity:1;fill-rule:nonzero;stroke:none" />
      <path
         d="M 705.34048,436.1551 L 705.34048,464.10104 L 726.23504,464.10104 L 726.23504,459.30934 L 711.08968,459.30934 L 711.08968,452.1005 L 724.469,452.1005 L 724.469,447.3088 L 711.08968,447.3088 L 711.08968,440.94681 L 725.58395,440.94681 L 725.58395,436.1551 L 705.34048,436.1551"
         id="path2421"
         style="fill:#1569b7;fill-opacity:1;fill-rule:nonzero;stroke:none" />
      <path
         d="M 458.66555,395.60434 L 458.66555,400.39605 L 467.13402,400.39605 L 467.13402,423.54603 L 472.88747,423.54603 L 472.88747,400.39605 L 481.04954,400.39605 L 481.04954,395.60434 L 458.66555,395.60434"
         id="path2425"
         style="fill:#1569b7;fill-opacity:1;fill-rule:nonzero;stroke:none" />
      <path
         d="M 484.77737,395.60434 L 484.77737,423.54603 L 505.67192,423.54603 L 505.67192,418.75858 L 490.53082,418.75858 L 490.53082,411.54974 L 503.91014,411.54974 L 503.91014,406.75804 L 490.53082,406.75804 L 490.53082,400.39605 L 505.02083,400.39605 L 505.02083,395.60434 L 484.77737,395.60434"
         id="path2429"
         style="fill:#1569b7;fill-opacity:1;fill-rule:nonzero;stroke:none" />
      <path
         d="M 527.91548,414.00517 C 527.68568,415.23076 527.57078,418.06493 523.58337,419.17987 C 522.77908,419.40967 521.93648,419.52457 521.17049,419.48627 C 520.36195,419.48627 519.63425,419.33307 518.90656,419.02667 C 517.48948,418.37558 516.22559,417.14574 515.30214,415.11586 C 514.53615,413.38812 514.34465,411.24334 514.42125,409.24751 C 514.53615,407.25593 514.91915,405.41755 515.30214,404.4175 C 516.22559,402.04293 518.25547,400.16625 520.85984,399.97475 C 526.46009,399.5492 527.76228,403.49831 527.91548,405.0686 L 533.39657,405.0686 C 533.35828,403.65151 533.16678,400.0471 529.14106,397.32782 C 526.42179,395.37029 523.62167,395.14049 521.63009,395.14049 C 514.38295,395.14049 511.04663,399.2428 509.47635,404.46006 C 509.01675,406.03034 508.82526,407.94532 508.82526,409.82626 C 508.82526,411.66464 509.05505,413.42642 509.36145,414.73286 C 510.85513,420.63526 515.18724,424.62267 521.40029,424.43117 C 524.84725,424.31627 527.99208,423.00983 529.63896,421.70764 C 531.74969,420.06076 533.35828,416.83934 533.39657,414.00517 L 527.91548,414.00517"
         id="path2433"
         style="fill:#1569b7;fill-opacity:1;fill-rule:nonzero;stroke:none" />
      <path
         d="M 537.21377,423.54603 L 542.96296,423.54603 L 542.96296,410.89865 L 554.04431,410.89865 L 554.04431,423.54603 L 559.79351,423.54603 L 559.79351,395.60434 L 554.04431,395.60434 L 554.04431,406.10694 L 542.96296,406.10694 L 542.96296,395.60434 L 537.21377,395.60434 L 537.21377,423.54603"
         id="path2437"
         style="fill:#1569b7;fill-opacity:1;fill-rule:nonzero;stroke:none" />
      <path
         d="M 565.06183,395.60434 L 565.06183,423.54603 L 570.81102,423.54603 L 570.81102,404.07281 L 582.12217,423.54603 L 587.79477,423.54603 L 587.79477,395.60434 L 582.04557,395.60434 L 582.04557,414.80946 L 570.73868,395.60434 L 565.06183,395.60434"
         id="path2441"
         style="fill:#1569b7;fill-opacity:1;fill-rule:nonzero;stroke:none" />
      <path
         d="M 592.33965,423.54603 L 598.08885,423.54603 L 598.08885,395.60009 L 592.33965,395.60009 L 592.33965,423.54603 z"
         id="path2443"
         style="fill:#1569b7;fill-opacity:1;fill-rule:nonzero;stroke:none" />
      <path
         d="M 623.83894,404.11111 C 624.06874,403.19192 623.68574,400.58755 622.23036,398.70661 C 619.50683,395.25539 614.29383,395.14049 612.80015,395.14049 C 605.97856,395.14049 602.75714,398.43851 602.29329,402.88552 C 601.8337,407.40913 604.32743,409.59646 607.35735,410.63055 C 610.95751,411.85614 616.48116,411.85614 618.31955,413.77112 C 619.69833,415.15416 619.43023,417.33724 618.20465,418.49048 C 617.47695,419.17987 615.67687,419.75437 613.75764,419.79266 C 611.84266,419.86926 609.77022,419.44797 608.50634,418.14153 C 607.54885,417.14574 607.31905,415.99675 607.31905,415.26906 L 601.7188,415.26906 C 601.9103,417.91173 603.14014,420.67356 605.62961,422.47364 C 607.70205,423.97158 611.07241,424.46947 612.49375,424.43117 C 615.59602,424.39287 618.85574,424.00988 621.23457,422.47364 C 624.71983,420.21396 626.21777,413.57962 622.99635,410.20925 C 621.23457,408.40492 617.93655,407.71553 616.40031,407.44743 C 615.32792,407.25593 610.03832,406.41334 609.38723,405.72395 C 608.12334,405.22605 607.47225,404.84306 607.62545,402.92382 C 607.81694,400.62584 609.88512,399.6641 612.68525,399.70665 C 616.63436,399.779 618.51104,401.85143 618.43444,404.11111 L 623.83894,404.11111"
         id="path2447"
         style="fill:#1569b7;fill-opacity:1;fill-rule:nonzero;stroke:none" />
      <path
         d="M 647.03999,414.00517 C 646.81019,415.23076 646.69529,418.06493 642.70788,419.17987 C 641.90359,419.40967 641.05674,419.52457 640.29075,419.48627 C 639.48645,419.48627 638.75876,419.33307 638.03107,419.02667 C 636.60973,418.37558 635.34584,417.14574 634.42665,415.11586 C 633.66066,413.38812 633.46916,411.24334 633.54576,409.24751 C 633.66066,407.25593 634.04366,405.41755 634.42665,404.4175 C 635.34584,402.04293 637.37998,400.16625 639.98435,399.97475 C 645.5846,399.5492 646.88679,403.49831 647.03999,405.0686 L 652.52108,405.0686 C 652.48278,403.65151 652.29129,400.0471 648.26557,397.32782 C 645.54205,395.37029 642.74618,395.14049 640.75034,395.14049 C 633.50746,395.14049 630.17114,399.2428 628.60086,404.46006 C 628.14126,406.03034 627.94977,407.94532 627.94977,409.82626 C 627.94977,411.66464 628.17956,413.42642 628.48596,414.73286 C 629.97964,420.63526 634.31175,424.62267 640.52054,424.43117 C 643.97176,424.31627 647.11659,423.00983 648.76347,421.70764 C 650.86995,420.06076 652.48278,416.83934 652.52108,414.00517 L 647.03999,414.00517"
         id="path2451"
         style="fill:#1569b7;fill-opacity:1;fill-rule:nonzero;stroke:none" />
      <path
         d="M 656.71702,423.54603 L 662.47047,423.54603 L 662.47047,410.89865 L 673.54756,410.89865 L 673.54756,423.54603 L 679.29676,423.54603 L 679.29676,395.60434 L 673.54756,395.60434 L 673.54756,406.10694 L 662.47047,406.10694 L 662.47047,395.60434 L 656.71702,395.60434 L 656.71702,423.54603"
         id="path2455"
         style="fill:#1569b7;fill-opacity:1;fill-rule:nonzero;stroke:none" />
      <path
         d="M 684.60763,395.60434 L 684.60763,423.54603 L 705.50219,423.54603 L 705.50219,418.75858 L 690.35683,418.75858 L 690.35683,411.54974 L 703.73615,411.54974 L 703.73615,406.75804 L 690.35683,406.75804 L 690.35683,400.39605 L 704.84684,400.39605 L 704.84684,395.60434 L 684.60763,395.60434"
         id="path2459"
         style="fill:#1569b7;fill-opacity:1;fill-rule:nonzero;stroke:none" />
      <path
         d="M 458.62725,355.04933 L 466.44463,382.99526 L 471.61933,382.99526 L 476.21953,361.68367 L 480.85804,382.99526 L 486.037,382.99526 L 493.85437,355.04933 L 487.76048,355.04933 L 483.46667,376.25028 L 479.28776,355.04933 L 473.19387,355.04933 L 469.01495,376.02048 L 464.72114,355.04933 L 458.62725,355.04933"
         id="path2463"
         style="fill:#1569b7;fill-opacity:1;fill-rule:nonzero;stroke:none" />
      <path
         d="M 497.07579,355.04933 L 497.07579,382.99526 L 517.96609,382.99526 L 517.96609,378.20356 L 502.82499,378.20356 L 502.82499,370.99898 L 516.20431,370.99898 L 516.20431,366.20727 L 502.82499,366.20727 L 502.82499,359.84103 L 517.315,359.84103 L 517.315,355.04933 L 497.07579,355.04933"
         id="path2467"
         style="fill:#1569b7;fill-opacity:1;fill-rule:nonzero;stroke:none" />
      <path
         d="M 542.77998,363.56035 C 543.00977,362.64116 542.62678,360.03253 541.16714,358.15585 C 538.44787,354.70463 533.23487,354.58973 531.73693,354.58973 C 524.91534,354.58973 521.69392,357.88775 521.23433,362.33476 C 520.77473,366.85837 523.26846,369.04144 526.29413,370.07979 C 529.89855,371.30538 535.41794,371.30538 537.25632,373.22036 C 538.63936,374.6034 538.37127,376.78647 537.14142,377.93546 C 536.41373,378.62485 534.61365,379.19935 532.69867,379.23765 C 530.77944,379.31425 528.71126,378.89295 527.44312,377.59077 C 526.48563,376.59498 526.25583,375.44599 526.25583,374.71404 L 520.65983,374.71404 C 520.85133,377.36097 522.07692,380.12279 524.57065,381.92288 C 526.63882,383.41656 530.01344,383.91445 531.43053,383.87615 C 534.53705,383.83786 537.79677,383.45486 540.17135,381.92288 C 543.66087,379.65894 545.15455,373.02886 541.93738,369.65849 C 540.17135,367.85416 536.87333,367.16476 535.34134,366.89667 C 534.26895,366.70517 528.97935,365.85832 528.32826,365.17319 C 527.06012,364.67104 526.40903,364.28804 526.56222,362.37306 C 526.75372,360.07083 528.82616,359.11334 531.62203,359.15164 C 535.57114,359.22824 537.45208,361.30067 537.37122,363.56035 L 542.77998,363.56035"
         id="path2471"
         style="fill:#1569b7;fill-opacity:1;fill-rule:nonzero;stroke:none" />
      <path
         d="M 544.21408,355.04933 L 544.21408,359.84103 L 552.6868,359.84103 L 552.6868,382.99526 L 558.436,382.99526 L 558.436,359.84103 L 566.60232,359.84103 L 566.60232,355.04933 L 544.21408,355.04933"
         id="path2475"
         style="fill:#1569b7;fill-opacity:1;fill-rule:nonzero;stroke:none" />
      <path
         d="M 569.37692,355.04933 L 569.37692,382.99526 L 575.13037,382.99526 L 575.13037,370.99898 L 587.35645,370.99898 L 587.35645,366.20727 L 575.13037,366.20727 L 575.13037,359.84103 L 589.00333,359.84103 L 589.00333,355.04933 L 569.37692,355.04933"
         id="path2479"
         style="fill:#1569b7;fill-opacity:1;fill-rule:nonzero;stroke:none" />
      <path
         d="M 595.78236,352.33005 L 599.99957,352.33005 L 599.99957,347.65325 L 595.78236,347.65325 L 595.78236,352.33005 z M 607.12755,347.64899 L 602.91034,347.64899 L 602.91034,352.3258 L 607.12755,352.3258 L 607.12755,347.64899 z M 604.86788,355.04933 L 598.23353,355.04933 L 588.49693,382.99526 L 594.36102,382.99526 L 596.31856,377.39927 L 606.66796,377.39927 L 608.58294,382.99526 L 614.45129,382.99526 L 604.86788,355.04933 z M 601.56986,361.76027 L 605.28917,372.60756 L 598.11864,372.60756 L 601.56986,361.76027"
         id="path2481"
         style="fill:#1569b7;fill-opacity:1;fill-rule:evenodd;stroke:none" />
      <path
         d="M 618.03868,355.04933 L 618.03868,382.99526 L 637.1672,382.99526 L 637.1672,378.20356 L 623.78788,378.20356 L 623.78788,355.04933 L 618.03868,355.04933"
         id="path2485"
         style="fill:#1569b7;fill-opacity:1;fill-rule:nonzero;stroke:none" />
      <path
         d="M 641.38867,382.99526 L 647.13786,382.99526 L 647.13786,355.04933 L 641.38867,355.04933 L 641.38867,382.99526 z"
         id="path2487"
         style="fill:#1569b7;fill-opacity:1;fill-rule:nonzero;stroke:none" />
      <path
         d="M 673.64969,363.56035 C 673.87949,362.64116 673.4965,360.03253 672.04111,358.15585 C 669.31758,354.70463 664.10458,354.58973 662.6109,354.58973 C 655.78506,354.58973 652.56364,357.88775 652.10404,362.33476 C 651.64445,366.85837 654.13818,369.04144 657.16385,370.07979 C 660.76826,371.30538 666.28766,371.30538 668.1303,373.22036 C 669.50908,374.6034 669.24099,376.78647 668.0154,377.93546 C 667.28771,378.62485 665.48337,379.19935 663.56839,379.23765 C 661.64915,379.31425 659.58098,378.89295 658.31709,377.59077 C 657.35534,376.59498 657.12555,375.44599 657.12555,374.71404 L 651.52955,374.71404 C 651.72105,377.36097 652.94664,380.12279 655.44036,381.92288 C 657.50854,383.41656 660.88316,383.91445 662.30025,383.87615 C 665.40677,383.83786 668.66649,383.45486 671.04107,381.92288 C 674.53059,379.65894 676.02427,373.02886 672.8071,369.65849 C 671.04107,367.85416 667.7473,367.16476 666.21106,366.89667 C 665.13867,366.70517 659.84907,365.85832 659.19798,365.17319 C 657.93409,364.67104 657.27874,364.28804 657.43194,362.37306 C 657.62344,360.07083 659.69587,359.11334 662.496,359.15164 C 666.44511,359.22824 668.3218,361.30067 668.2452,363.56035 L 673.64969,363.56035"
         id="path2491"
         style="fill:#1569b7;fill-opacity:1;fill-rule:nonzero;stroke:none" />
      <path
         d="M 696.84648,373.45015 C 696.62094,374.67574 696.50179,377.51417 692.51863,378.62485 C 691.71008,378.85465 690.86749,378.97381 690.1015,378.93125 C 689.29721,378.93125 688.56951,378.77805 687.84182,378.47166 C 686.42048,377.82056 685.1566,376.59498 684.2374,374.56084 C 683.47141,372.83736 683.27991,370.69258 683.35651,368.69675 C 683.47141,366.70517 683.85441,364.86253 684.2374,363.86674 C 685.1566,361.48791 687.19073,359.61123 689.7951,359.41974 C 695.3911,358.99844 696.69328,362.94755 696.84648,364.51784 L 702.33184,364.51784 C 702.29354,363.10075 702.10204,359.49633 698.07633,356.77706 C 695.3528,354.81953 692.55267,354.58973 690.56109,354.58973 C 683.31821,354.58973 679.98189,358.69204 678.41161,363.90504 C 677.95202,365.47533 677.76052,367.39456 677.76052,369.27124 C 677.76052,371.11388 677.98606,372.87566 678.29671,374.17785 C 679.7904,380.08449 684.12251,384.06765 690.3313,383.87615 C 693.78252,383.76126 696.92308,382.45907 698.57422,381.15688 C 700.6807,379.50575 702.29354,376.28858 702.33184,373.45015 L 696.84648,373.45015"
         id="path2495"
         style="fill:#1569b7;fill-opacity:1;fill-rule:nonzero;stroke:none" />
      <path
         d="M 706.52777,382.99526 L 712.27696,382.99526 L 712.27696,370.34363 L 723.35406,370.34363 L 723.35406,382.99526 L 729.10751,382.99526 L 729.10751,355.04933 L 723.35406,355.04933 L 723.35406,365.55193 L 712.27696,365.55193 L 712.27696,355.04933 L 706.52777,355.04933 L 706.52777,382.99526"
         id="path2499"
         style="fill:#1569b7;fill-opacity:1;fill-rule:nonzero;stroke:none" />
      <path
         d="M 734.41839,355.04933 L 734.41839,382.99526 L 755.30869,382.99526 L 755.30869,378.20356 L 740.16758,378.20356 L 740.16758,370.99898 L 753.54691,370.99898 L 753.54691,366.20727 L 740.16758,366.20727 L 740.16758,359.84103 L 754.65759,359.84103 L 754.65759,355.04933 L 734.41839,355.04933"
         id="path2503"
         style="fill:#1569b7;fill-opacity:1;fill-rule:nonzero;stroke:none" />
      <path
         d="M 461.19333,342.4445 L 466.94252,342.4445 L 466.94252,331.40571 L 473.69176,331.40571 C 475.68334,331.40571 477.06213,332.3249 477.14298,334.20158 C 477.06213,336.23146 477.06213,338.45709 477.14298,339.83588 C 477.21958,340.75507 477.44938,341.60191 477.90897,342.4445 L 484.07946,342.4445 L 484.07946,341.41041 C 483.46667,341.02742 483.00707,340.67847 483.00707,339.10818 C 482.96877,337.6911 482.89217,334.01008 482.73898,332.86109 C 482.43258,330.32906 480.58994,329.63967 479.63245,328.98858 C 481.51339,327.87789 482.73898,326.997 483.42837,324.57987 C 484.11776,322.16274 483.54327,320.17116 483.16027,318.94557 C 482.35598,315.91565 479.51755,314.61346 476.71743,314.49857 L 461.19333,314.49857 L 461.19333,342.4445 z M 466.94252,319.29027 L 474.72585,319.29027 C 477.29618,319.29027 478.21537,320.43926 478.21537,322.43084 C 478.56006,325.19266 476.14293,326.60975 474.80245,326.60975 L 466.94252,326.60975 L 466.94252,319.29027"
         id="path2507"
         style="fill:#1569b7;fill-opacity:1;fill-rule:evenodd;stroke:none" />
      <path
         d="M 488.20305,342.4445 L 493.95225,342.4445 L 493.95225,329.79287 L 505.0336,329.79287 L 505.0336,342.4445 L 510.78279,342.4445 L 510.78279,314.49857 L 505.0336,314.49857 L 505.0336,325.00117 L 493.95225,325.00117 L 493.95225,314.49857 L 488.20305,314.49857 L 488.20305,342.4445"
         id="path2511"
         style="fill:#1569b7;fill-opacity:1;fill-rule:nonzero;stroke:none" />
      <path
         d="M 515.33193,314.49857 L 515.33193,342.4445 L 536.22649,342.4445 L 536.22649,337.6528 L 521.08113,337.6528 L 521.08113,330.44396 L 534.46045,330.44396 L 534.46045,325.65226 L 521.08113,325.65226 L 521.08113,319.29027 L 535.57114,319.29027 L 535.57114,314.49857 L 515.33193,314.49857"
         id="path2515"
         style="fill:#1569b7;fill-opacity:1;fill-rule:nonzero;stroke:none" />
      <path
         d="M 540.86925,342.4445 L 546.61845,342.4445 L 546.61845,314.49857 L 540.86925,314.49857 L 540.86925,342.4445 z"
         id="path2517"
         style="fill:#1569b7;fill-opacity:1;fill-rule:nonzero;stroke:none" />
      <path
         d="M 552.00592,314.49857 L 552.00592,342.4445 L 557.75937,342.4445 L 557.75937,322.97129 L 569.06626,342.4445 L 574.73886,342.4445 L 574.73886,314.49857 L 568.98967,314.49857 L 568.98967,333.70368 L 557.68277,314.49857 L 552.00592,314.49857"
         id="path2521"
         style="fill:#1569b7;fill-opacity:1;fill-rule:nonzero;stroke:none" />
      <path
         d="M 579.66674,342.4445 L 585.41594,342.4445 L 585.41594,314.49857 L 579.66674,314.49857 L 579.66674,342.4445 z"
         id="path2523"
         style="fill:#1569b7;fill-opacity:1;fill-rule:nonzero;stroke:none" />
      <path
         d="M 611.16603,323.00959 C 611.39583,322.08614 611.01283,319.48177 609.55319,317.60083 C 606.83392,314.15387 601.62092,314.03897 600.12298,314.03897 C 593.3014,314.03897 590.07998,317.33274 589.62038,321.77974 C 589.16079,326.30335 591.65452,328.49068 594.68018,329.52477 C 598.2846,330.75036 603.804,330.75036 605.64238,332.6696 C 607.02542,334.04838 606.75732,336.23146 605.53174,337.3847 C 604.79979,338.07409 602.99971,338.64859 601.08473,338.68689 C 599.16549,338.76349 597.09731,338.34219 595.82917,337.04 C 594.87168,336.04422 594.64188,334.89097 594.64188,334.16328 L 589.04589,334.16328 C 589.23739,336.81021 590.46723,339.56778 592.9567,341.37211 C 595.02488,342.8658 598.3995,343.36369 599.81658,343.32539 C 602.92311,343.28709 606.18283,342.9041 608.5574,341.37211 C 612.04692,339.10818 613.54061,332.4781 610.31919,329.10348 C 608.5574,327.3034 605.25938,326.60975 603.7274,326.34165 C 602.65501,326.15015 597.36541,325.30756 596.71432,324.61817 C 595.44618,324.12027 594.79508,323.73728 594.94828,321.81804 C 595.13978,319.52007 597.21221,318.56258 600.00808,318.60088 C 603.9572,318.67748 605.83813,320.74565 605.76153,323.00959 L 611.16603,323.00959"
         id="path2527"
         style="fill:#1569b7;fill-opacity:1;fill-rule:nonzero;stroke:none" />
      <path
         d="M 633.60108,332.89939 C 633.37554,334.12498 633.26064,336.96341 629.27323,338.07409 C 628.46468,338.30389 627.62209,338.41879 626.8561,338.38049 C 626.05181,338.38049 625.32412,338.22729 624.59642,337.9209 C 623.17508,337.2698 621.9112,336.04422 620.99201,334.01008 C 620.22601,332.28234 620.03452,330.13757 620.11112,328.14599 C 620.22601,326.15015 620.60901,324.31177 620.99201,323.31598 C 621.9112,320.93715 623.94533,319.06047 626.5497,318.86897 C 632.1457,318.44768 633.44789,322.39254 633.60108,323.96708 L 639.08644,323.96708 C 639.04814,322.54999 638.85664,318.94557 634.83093,316.22205 C 632.1074,314.26877 629.31153,314.03897 627.31569,314.03897 C 620.07282,314.03897 616.7365,318.14128 615.16621,323.35428 C 614.70236,324.92457 614.51512,326.83955 614.51512,328.72048 C 614.51512,330.55886 614.74066,332.3249 615.05131,333.62709 C 616.545,339.52948 620.87711,343.51689 627.0859,343.32539 C 630.53712,343.2105 633.68194,341.90405 635.32882,340.60187 C 637.4353,338.95498 639.04814,335.73356 639.08644,332.89939 L 633.60108,332.89939"
         id="path2531"
         style="fill:#1569b7;fill-opacity:1;fill-rule:nonzero;stroke:none" />
      <path
         d="M 643.28237,342.4445 L 649.03157,342.4445 L 649.03157,329.79287 L 660.10866,329.79287 L 660.10866,342.4445 L 665.86211,342.4445 L 665.86211,314.49857 L 660.10866,314.49857 L 660.10866,325.00117 L 649.03157,325.00117 L 649.03157,314.49857 L 643.28237,314.49857 L 643.28237,342.4445"
         id="path2535"
         style="fill:#1569b7;fill-opacity:1;fill-rule:nonzero;stroke:none" />
      <path
         d="M 669.52185,334.46968 L 679.94785,334.46968 L 679.94785,329.25668 L 669.52185,329.25668 L 669.52185,334.46968 z"
         id="path2537"
         style="fill:#1569b7;fill-opacity:1;fill-rule:nonzero;stroke:none" />
      <path
         d="M 435.6858,315.13264 L 435.6858,503.97943 L 372.85318,503.97943 L 372.85318,426.97171 L 328.87248,426.97171 L 328.87248,503.97943 C 317.47197,503.97943 305.18631,503.85177 293.79005,503.97943 L 266.04412,503.97943 L 266.04412,358.82822 L 222.10172,358.82822 C 222.10172,360.22403 222.10172,361.61558 222.10172,363.39013 L 222.10172,503.97943 L 159.27336,503.97943 L 159.27336,358.82822 L 114.95221,358.82822 L 114.95221,503.97943 L 50.230153,503.97943 C 38.957305,476.74842 27.050386,449.26208 16.032869,422.15873 C 14.764727,416.4606 13.50084,410.75822 11.853958,405.18775 L 11.853958,503.97943 L -52.995769,503.97943 C -65.851666,474.08872 -78.201158,444.79805 -91.023012,414.46477 C -95.465765,403.95365 -99.099971,395.40433 -103.68741,384.48044 L -104.32148,383.05484 L -114.2964,359.624 L -128.5864,326.15441 C -129.85455,322.35424 -131.88017,318.93281 -133.14831,315.13264 L -68.447528,315.13264 C -55.149057,347.43196 -41.722921,379.34829 -27.790379,411.14121 L -27.411639,411.89869 C -27.918045,408.22619 -29.062777,403.54087 -29.696848,399.99177 L -29.696848,343.63179 C -29.569183,334.6399 -29.696848,324.37986 -29.696848,315.13264 L 35.152879,315.13264 C 35.969937,317.1923 36.425276,318.29874 37.055092,319.94562 C 44.655434,337.806 51.877035,355.53871 59.477377,373.27142 L 76.448354,411.89869 C 76.065358,407.84745 75.180212,403.91961 74.673806,399.99177 L 74.673806,315.13264 L 328.87248,315.13264 L 328.87248,383.27613 C 328.87248,383.27613 330.8981,383.27613 331.91091,383.27613 L 372.85318,383.27613 L 372.85318,315.13264 C 372.85318,315.13264 394.73502,315.13264 405.62487,315.13264 L 435.6858,315.13264"
         id="path2541"
         style="fill:#1569b7;fill-opacity:1;fill-rule:nonzero;stroke:none" />
    </g>
  </g>
</svg>
